[{
		"name": "ICC World CUP Warm up Matches",
		"logo": "https://upload.wikimedia.org/wikipedia/en/thumb/d/d3/ICC_Cricket_World_Cup_2019_logo.svg/1200px-ICC_Cricket_World_Cup_2019_logo.svg.png",
		"sname": "Trending Now",
		"ssname": "Works Only In India",
		"streaming": [{
				"cookie": "cookie",
				"referer": "refererr",
				"origin": "origin",
				"age": "Mozilla/5.0 (Linux; Android 9.0.1; HTC One_M10) AppleWebKit/537.36 (KHTML, like Gecko) Chrome/72.0.3626.76 Mobile Safari/537.36",
				"cardl": 300,
				"cardw": 350,
				"category": 6,
				"channel_id": 889,
				"drm": false,
				"hd": false,
				"icon": "n/UEC/JrVg4WhMdIdZcIObVtSQNsdpaMBSUsSB68TOcEp140oosA/yTlbVEnOK5ihQAza0ZaK+o8mb/4k+W16v0jDFhrW7z7+r15DNUhog/q1hirAp+ktoN7F1X5nZ62nD4dc0s80Qp0t+CI54xUVw==",
				"imgh": 250,
				"imgw": 192,
				"isHD": false,
				"language": 6,
				"lic": false,
				"link": "xog1Ewa49MOQ45aBmEiS9HFDfTuCEfLlq/wP5ba4CDD9i4LqjAiCprzWYSyX0w7GdQYm0atJO+IJ53XUzlVgF3bKgfS790XNFxvueKoFCsI=",
				"linkp": "a",
				"live": true,
				"name": "Big Boss Hindi HD(Live Only)",
				"tok": "widevine",
				"tokj": "thoptv",
				"trigger": false,
				"z": false,
				"zee": false
			},
			{
				"cookie": "cookie",
				"referer": "refererr",
				"origin": "origin",
				"age": "WWE/4.0.22 (Linux;Android 9) ExoPlayerLib/2.9.3",
				"cardl": 300,
				"cardw": 350,
				"category": 6,
				"channel_id": 120,
				"drm": false,
				"hd": false,
				"icon": "PDOzGjsWPAxp/pkf5EgZVrJjXyYpYnIS10E6UhFjolbesUEvGpNYbySDIrKVmWw/KWkWQtY+jhLjJJFkGYKrhU7AW2e5++yJE9rktej4470=",
				"imgh": 250,
				"imgw": 192,
				"isHD": false,
				"language": 2,
				"lic": false,
				"link": "0jk3LpvryTAUC4UOGEw4gBc2Hw66lupsWtEbDkJJCUhzjLXFjUGRdFf5Hz4gAoS+",
				"linkp": "abc",
				"live": false,
				"name": "WWE Live(WorldWide)",
				"tok": "widevine",
				"tokj": "thoptv",
				"trigger": false,
				"z": false,
				"zee": false
			}
		]
	},
{
		"name": "Sony Live Channels",
		"logo": "https://upload.wikimedia.org/wikipedia/en/thumb/d/d3/ICC_Cricket_World_Cup_2019_logo.svg/1200px-ICC_Cricket_World_Cup_2019_logo.svg.png",
		"sname": "Trending Now",
		"ssname": "Works Only In India",
		"streaming": [{
				"cookie": "",
				"referer": "",
				"origin": "",
				"age": "SonyLIV",
				"cardl": 300,
				"cardw": 450,
				"category": 5,
				"channel_id": 155,
				"drm": false,
				"hd": false,
				"icon": "34VtVRR0AKa25jKdXl9yxlO1nfisu1EFciFZudP8d/1+M7VHFYPKad6agNfSVdDHHSI+RK9DuvzRY5M3srg4MDjYnJH7Kk0l904bnd2oIhzQyStwVMlE/SaMeBlveYODAxSuhS/jW+x6/RNPiSTBLuTOex8uNnOkaxLVUVKUGLaXfTMA1KDcFE31BCI8/Fcn6syWDH3N4S4+5z+v5OeQkgs5+mSZG1VVx6LtkrgW76mrW1jV2dOchjMl1l+ZTHMdXlTX+RzXRoIOyfeBMFegxg==",
				"imgh": 219,
				"imgw": 450,
				"isHD": true,
				"language": 1,
				"lic": false,
				"link": "WIcuWrCQuy0UjplB+AIRMlYdIpR+skt43a7G5H/EWHl7PONibefy+7nKcvptxvHAP5QqM+I/w54XhbEIQSRZjvMVT8KTP6jI+0h4vD80ZVp1E1QCwqko+6ZapdzB6Z/W",
				"linkp": "abc",
				"live": true,
				"name": "SET Live",
				"tok": "widevine",
				"tokj": "thoptv",
				"trigger": false,
				"z": false,
				"zee": false
			},{
				"cookie": "",
				"referer": "",
				"origin": "",
				"age": "SonyLIV",
				"cardl": 300,
				"cardw": 450,
				"category": 5,
				"channel_id": 155,
				"drm": false,
				"hd": false,
				"icon": "34VtVRR0AKa25jKdXl9yxlO1nfisu1EFciFZudP8d/1+M7VHFYPKad6agNfSVdDHHSI+RK9DuvzRY5M3srg4MDjYnJH7Kk0l904bnd2oIhzQyStwVMlE/SaMeBlveYODAxSuhS/jW+x6/RNPiSTBLuTOex8uNnOkaxLVUVKUGLZJdW/EySL7+XHBM4ZlzKKzT7w6xMEHQWa6QgBL9Sw7VSTczbudLbF4YS2b4p2PatAlElNMy1ZDVugKQqkitq7j",
				"imgh": 219,
				"imgw": 450,
				"isHD": true,
				"language": 1,
				"lic": false,
				"link": "WIcuWrCQuy0UjplB+AIRMlYdIpR+skt43a7G5H/EWHn9jB91mI7FWNeK4a0gWWLHS14+lG0mXHADFIZbIXcfxjrG7lR+hmVrek5+CMM6vmdIeQX7jr5UglIPoD++ENYY",
				"linkp": "abc",
				"live": true,
				"name": "Ten 1 HD",
				"tok": "widevine",
				"tokj": "thoptv",
				"trigger": false,
				"z": false,
				"zee": false
			},
			{
				"cookie": "",
				"referer": "",
				"origin": "",
				"age": "SonyLIV",
				"cardl": 300,
				"cardw": 450,
				"category": 5,
				"channel_id": 155,
				"drm": false,
				"hd": false,
				"icon": "34VtVRR0AKa25jKdXl9yxlO1nfisu1EFciFZudP8d/1+M7VHFYPKad6agNfSVdDHHSI+RK9DuvzRY5M3srg4MDjYnJH7Kk0l904bnd2oIhzQyStwVMlE/SaMeBlveYODAxSuhS/jW+x6/RNPiSTBLuTOex8uNnOkaxLVUVKUGLZJdW/EySL7+XHBM4ZlzKKzar1mmaSTP9ttdTHY7g0xe4hfQcoaRr27ueltk7aJReiFhRdry8tnqP0N3yraX5vT",
				"imgh": 219,
				"imgw": 450,
				"isHD": true,
				"language": 1,
				"lic": false,
				"link": "WIcuWrCQuy0UjplB+AIRMlYdIpR+skt43a7G5H/EWHk1fesNizTt8Vjpu8CL1Wu4I4JMO3cK7+KMOJVSjyWwcFv+YGpL23GZ+OFeXMEMk6yE8a2qJ24AJBbPjdMcecxi",
				"linkp": "abc",
				"live": true,
				"name": "SIX HD",
				"tok": "widevine",
				"tokj": "thoptv",
				"trigger": false,
				"z": false,
				"zee": false
			},
			{
				"cookie": "",
				"referer": "",
				"origin": "",
				"age": "SonyLIV",
				"cardl": 300,
				"cardw": 450,
				"category": 5,
				"channel_id": 155,
				"drm": false,
				"hd": false,
				"icon": "34VtVRR0AKa25jKdXl9yxlO1nfisu1EFciFZudP8d/1+M7VHFYPKad6agNfSVdDHHSI+RK9DuvzRY5M3srg4MDjYnJH7Kk0l904bnd2oIhzQyStwVMlE/SaMeBlveYODAxSuhS/jW+x6/RNPiSTBLuTOex8uNnOkaxLVUVKUGLZJdW/EySL7+XHBM4ZlzKKzT7w6xMEHQWa6QgBL9Sw7VZOi8o6867B41VL8MGRk1qP/BRc/tDRkYw2gIbro5ckr",
				"imgh": 219,
				"imgw": 450,
				"isHD": true,
				"language": 1,
				"lic": false,
				"link": "WIcuWrCQuy0UjplB+AIRMlYdIpR+skt43a7G5H/EWHnDJ1sVo2GqUt6NEwzh77ygt/SKPSsda3f4mz260IXC6ULoa6aIaz8cMvqjWVD9aqR8nxD/4Lw3rBZpSetZ/ONS",
				"linkp": "abc",
				"live": true,
				"name": "Ten 2",
				"tok": "widevine",
				"tokj": "thoptv",
				"trigger": false,
				"z": false,
				"zee": false
			},
			{
				"cookie": "",
				"referer": "",
				"origin": "",
				"age": "SonyLIV",
				"cardl": 300,
				"cardw": 450,
				"category": 5,
				"channel_id": 155,
				"drm": false,
				"hd": false,
				"icon": "34VtVRR0AKa25jKdXl9yxlO1nfisu1EFciFZudP8d/1+M7VHFYPKad6agNfSVdDHHSI+RK9DuvzRY5M3srg4MDjYnJH7Kk0l904bnd2oIhzQyStwVMlE/SaMeBlveYODAxSuhS/jW+x6/RNPiSTBLuTOex8uNnOkaxLVUVKUGLZJdW/EySL7+XHBM4ZlzKKzT7w6xMEHQWa6QgBL9Sw7VS9viIq1okE/6TYJtFMNmYRnnIXCTAlNN8XddsYNQ9Ca",
				"imgh": 219,
				"imgw": 450,
				"isHD": true,
				"language": 1,
				"lic": false,
				"link": "WIcuWrCQuy0UjplB+AIRMlYdIpR+skt43a7G5H/EWHmUrvqL0Q4qHy0vrki4/iANHO0HF23OVLTlSnbVTKJICYgqvWGHzVnZCqMkQ6YzIJSE4anX4baVgZQSwY+b/J2+",
				"linkp": "abc",
				"live": true,
				"name": "Ten 3",
				"tok": "widevine",
				"tokj": "thoptv",
				"trigger": false,
				"z": false,
				"zee": false
			},
			{
				"cookie": "",
				"referer": "",
				"origin": "",
				"age": "SonyLIV",
				"cardl": 300,
				"cardw": 450,
				"category": 5,
				"channel_id": 155,
				"drm": false,
				"hd": false,
				"icon": "34VtVRR0AKa25jKdXl9yxlO1nfisu1EFciFZudP8d/1+M7VHFYPKad6agNfSVdDHHSI+RK9DuvzRY5M3srg4MDjYnJH7Kk0l904bnd2oIhzQyStwVMlE/SaMeBlveYODAxSuhS/jW+x6/RNPiSTBLuTOex8uNnOkaxLVUVKUGLZJdW/EySL7+XHBM4ZlzKKzar1mmaSTP9ttdTHY7g0xe8CSqiBG/A0hJNnbUtOoFjGihljCsxdhgNJ/NAXYgLMR",
				"imgh": 219,
				"imgw": 450,
				"isHD": true,
				"language": 1,
				"lic": false,
				"link": "WIcuWrCQuy0UjplB+AIRMlYdIpR+skt43a7G5H/EWHke57igVAjEsNj8CrvoyLZAAg5qgK6AP0BLmhB9DMS3+xAhHb47MOfkLydwynCyZPLmSjilTlLFD6mWfERO4Ol+",
				"linkp": "abc",
				"live": true,
				"name": "SIX SD",
				"tok": "widevine",
				"tokj": "thoptv",
				"trigger": false,
				"z": false,
				"zee": false
			},
			{
				"cookie": "",
				"referer": "",
				"origin": "",
				"age": "SonyLIV",
				"cardl": 300,
				"cardw": 450,
				"category": 5,
				"channel_id": 155,
				"drm": false,
				"hd": false,
				"icon": "34VtVRR0AKa25jKdXl9yxlO1nfisu1EFciFZudP8d/1+M7VHFYPKad6agNfSVdDHHSI+RK9DuvzRY5M3srg4MDjYnJH7Kk0l904bnd2oIhzQyStwVMlE/SaMeBlveYODAxSuhS/jW+x6/RNPiSTBLuTOex8uNnOkaxLVUVKUGLZJdW/EySL7+XHBM4ZlzKKzT7w6xMEHQWa6QgBL9Sw7VaG85OY1Ti6icyIag3N8b0FOtX/NOu68cmSfHDffV4jH",
				"imgh": 219,
				"imgw": 450,
				"isHD": true,
				"language": 1,
				"lic": false,
				"link": "WIcuWrCQuy0UjplB+AIRMlYdIpR+skt43a7G5H/EWHmBBXFAg8hB7Cx6h/VQuVKplwTqqSunkNuxswuaTM4oGxtg7R1dLF2FWRazUeiiYWB0vMTPbt8HSXBZ+GLgjPtj",
				"linkp": "abc",
				"live": true,
				"name": "Ten 1",
				"tok": "widevine",
				"tokj": "thoptv",
				"trigger": false,
				"z": false,
				"zee": false
			},
			{
				"cookie": "",
				"referer": "",
				"origin": "",
				"age": "SonyLIV",
				"cardl": 300,
				"cardw": 450,
				"category": 5,
				"channel_id": 155,
				"drm": false,
				"hd": false,
				"icon": "34VtVRR0AKa25jKdXl9yxlO1nfisu1EFciFZudP8d/1+M7VHFYPKad6agNfSVdDHHSI+RK9DuvzRY5M3srg4MDjYnJH7Kk0l904bnd2oIhzQyStwVMlE/SaMeBlveYODAxSuhS/jW+x6/RNPiSTBLuTOex8uNnOkaxLVUVKUGLZJdW/EySL7+XHBM4ZlzKKzT7w6xMEHQWa6QgBL9Sw7VZOi8o6867B41VL8MGRk1qP/BRc/tDRkYw2gIbro5ckr",
				"imgh": 219,
				"imgw": 450,
				"isHD": true,
				"language": 1,
				"lic": false,
				"link": "WIcuWrCQuy0UjplB+AIRMlYdIpR+skt43a7G5H/EWHnDJ1sVo2GqUt6NEwzh77ygt/SKPSsda3f4mz260IXC6ULoa6aIaz8cMvqjWVD9aqR8nxD/4Lw3rBZpSetZ/ONS",
				"linkp": "abc",
				"live": true,
				"name": "Ten 2",
				"tok": "widevine",
				"tokj": "thoptv",
				"trigger": false,
				"z": false,
				"zee": false
			},
			{
				"cookie": "",
				"referer": "",
				"origin": "",
				"age": "SonyLIV",
				"cardl": 300,
				"cardw": 450,
				"category": 5,
				"channel_id": 155,
				"drm": false,
				"hd": false,
				"icon": "34VtVRR0AKa25jKdXl9yxlO1nfisu1EFciFZudP8d/1+M7VHFYPKad6agNfSVdDHHSI+RK9DuvzRY5M3srg4MDjYnJH7Kk0l904bnd2oIhzQyStwVMlE/SaMeBlveYODAxSuhS/jW+x6/RNPiSTBLuTOex8uNnOkaxLVUVKUGLZJdW/EySL7+XHBM4ZlzKKzT7w6xMEHQWa6QgBL9Sw7VS9viIq1okE/6TYJtFMNmYRnnIXCTAlNN8XddsYNQ9Ca",
				"imgh": 219,
				"imgw": 450,
				"isHD": true,
				"language": 1,
				"lic": false,
				"link": "WIcuWrCQuy0UjplB+AIRMlYdIpR+skt43a7G5H/EWHmUrvqL0Q4qHy0vrki4/iANHO0HF23OVLTlSnbVTKJICYgqvWGHzVnZCqMkQ6YzIJSE4anX4baVgZQSwY+b/J2+",
				"linkp": "abc",
				"live": true,
				"name": "Ten 3",
				"tok": "widevine",
				"tokj": "thoptv",
				"trigger": false,
				"z": false,
				"zee": false
			},
			{
				"cookie": "",
				"referer": "",
				"origin": "",
				"age": "SonyLIV",
				"cardl": 300,
				"cardw": 450,
				"category": 5,
				"channel_id": 155,
				"drm": false,
				"hd": false,
				"icon": "34VtVRR0AKa25jKdXl9yxlO1nfisu1EFciFZudP8d/1+M7VHFYPKad6agNfSVdDHHSI+RK9DuvzRY5M3srg4MDjYnJH7Kk0l904bnd2oIhzQyStwVMlE/SaMeBlveYODAxSuhS/jW+x6/RNPiSTBLuTOex8uNnOkaxLVUVKUGLaXfTMA1KDcFE31BCI8/FcnN3ozqo22N3zHRKmJZbcAw7mIinLkJQZmJk7AlNNcBboHz+r54FSNZJE1WhrHtvjs6xT1irIxPosLcUEdfks3rw==",
				"imgh": 219,
				"imgw": 450,
				"isHD": true,
				"language": 1,
				"lic": false,
				"link": "WIcuWrCQuy0UjplB+AIRMlYdIpR+skt43a7G5H/EWHk6t0yYflZUV76spst6aSj+M2DdTUJcXRKFOkjjtJGOpLY70wRoyvTIn9++zDufgB0b186TXHUFg85Az4vwK2qi",
				"linkp": "abc",
				"live": true,
				"name": "MAX",
				"tok": "widevine",
				"tokj": "thoptv",
				"trigger": false,
				"z": false,
				"zee": false
			},
			{
				"cookie": "",
				"referer": "",
				"origin": "",
				"age": "SonyLIV",
				"cardl": 300,
				"cardw": 450,
				"category": 5,
				"channel_id": 155,
				"drm": false,
				"hd": false,
				"icon": "34VtVRR0AKa25jKdXl9yxlO1nfisu1EFciFZudP8d/1+M7VHFYPKad6agNfSVdDHHSI+RK9DuvzRY5M3srg4MDjYnJH7Kk0l904bnd2oIhzQyStwVMlE/SaMeBlveYODAxSuhS/jW+x6/RNPiSTBLuTOex8uNnOkaxLVUVKUGLaXfTMA1KDcFE31BCI8/Fcn9M4YOWnK76LEEjewIQ5Athkbq7rue6uj53n2PH9chMwwDKJm/NZZda6V0u6cYL+HtdM+grdu5TR40nGx/m531A==",
				"imgh": 219,
				"imgw": 450,
				"isHD": true,
				"language": 1,
				"lic": false,
				"link": "WIcuWrCQuy0UjplB+AIRMlYdIpR+skt43a7G5H/EWHkpnUrEfzmllExifCfzlgj0R7t7zZA3xpNhhxRLiBmYSxiTjpN07EMWKAxIC07OyX+QGslFEOY7lY0XYHsZ7xs9",
				"linkp": "abc",
				"live": true,
				"name": "SAB",
				"tok": "widevine",
				"tokj": "thoptv",
				"trigger": false,
				"z": false,
				"zee": false
			},
			{
				"cookie": "",
				"referer": "",
				"origin": "",
				"age": "SonyLIV",
				"cardl": 300,
				"cardw": 450,
				"category": 5,
				"channel_id": 155,
				"drm": false,
				"hd": false,
				"icon": "34VtVRR0AKa25jKdXl9yxlO1nfisu1EFciFZudP8d/1+M7VHFYPKad6agNfSVdDHHSI+RK9DuvzRY5M3srg4MDjYnJH7Kk0l904bnd2oIhzQyStwVMlE/SaMeBlveYODAxSuhS/jW+x6/RNPiSTBLuTOex8uNnOkaxLVUVKUGLaXfTMA1KDcFE31BCI8/Fcn9l3d9xQ69tL4+dZ+/wCN7t2SdmJU8EcjJ7iSJUVNK0MF8U5bnp+S8s9S5GppJSFCX+d1biHutYqbj+EWsK2trw==",
				"imgh": 219,
				"imgw": 450,
				"isHD": true,
				"language": 1,
				"lic": false,
				"link": "WIcuWrCQuy0UjplB+AIRMlYdIpR+skt43a7G5H/EWHkjJbXBz6sumqisz63KXZ2CPstda+L1iXGtsiBEUrpVZ0S0rRRIo9YqhVmhxhPJnFOdLYcKu9gKPhJ/Rg/OXQcX",
				"linkp": "abc",
				"live": true,
				"name": "Sony WAH",
				"tok": "widevine",
				"tokj": "thoptv",
				"trigger": false,
				"z": false,
				"zee": false
			},
			{
				"cookie": "",
				"referer": "",
				"origin": "",
				"age": "SonyLIV",
				"cardl": 300,
				"cardw": 450,
				"category": 5,
				"channel_id": 155,
				"drm": false,
				"hd": false,
				"icon": "34VtVRR0AKa25jKdXl9yxlO1nfisu1EFciFZudP8d/1+M7VHFYPKad6agNfSVdDHHSI+RK9DuvzRY5M3srg4MDjYnJH7Kk0l904bnd2oIhzQyStwVMlE/SaMeBlveYODAxSuhS/jW+x6/RNPiSTBLuTOex8uNnOkaxLVUVKUGLaXfTMA1KDcFE31BCI8/FcnwQjIjd1z1do2EB4sKbxFuW1K3dr7uR3ybuTm3VdxD1vUNoxuda1XUj9ecME8t8d/CRkxi6f5uK/hFkBhtFX/7w==",
				"imgh": 219,
				"imgw": 450,
				"isHD": true,
				"language": 1,
				"lic": false,
				"link": "WIcuWrCQuy0UjplB+AIRMlYdIpR+skt43a7G5H/EWHlBQzwpCfx1ivHZ8zo1nRMP/GmZedMqC32gfVVw0J0ymRtf5yp3D4yQaH5e9bSjpvQ=",
				"linkp": "abc",
				"live": true,
				"name": "MAX",
				"tok": "widevine",
				"tokj": "thoptv",
				"trigger": false,
				"z": false,
				"zee": false
			},
			{
				"cookie": "",
				"referer": "",
				"origin": "",
				"age": "SonyLIV",
				"cardl": 300,
				"cardw": 450,
				"category": 5,
				"channel_id": 155,
				"drm": false,
				"hd": false,
				"icon": "34VtVRR0AKa25jKdXl9yxlO1nfisu1EFciFZudP8d/1+M7VHFYPKad6agNfSVdDHHSI+RK9DuvzRY5M3srg4MDjYnJH7Kk0l904bnd2oIhzQyStwVMlE/SaMeBlveYODAxSuhS/jW+x6/RNPiSTBLuTOex8uNnOkaxLVUVKUGLZJdW/EySL7+XHBM4ZlzKKzT7w6xMEHQWa6QgBL9Sw7VX6jqhfO1Z9Zyu4tiXgCvFEDyJuBajf09S1ZS8Tky9yuH/Sdfwx1Bii14CsXM2lahA==",
				"imgh": 219,
				"imgw": 450,
				"isHD": true,
				"language": 1,
				"lic": false,
				"link": "WIcuWrCQuy0UjplB+AIRMlYdIpR+skt43a7G5H/EWHnwp5ZbLf8ai3Hb79onSBTDo/4q1Gg0ZEuptgi4gkQTG8TheJl0gvLoRPRkOYFkWOximRmpMGWhkQy7errJCkYk",
				"linkp": "abc",
				"live": true,
				"name": "Sony Marathi",
				"tok": "widevine",
				"tokj": "thoptv",
				"trigger": false,
				"z": false,
				"zee": false
			},
			{
				"cookie": "",
				"referer": "",
				"origin": "",
				"age": "SonyLIV",
				"cardl": 300,
				"cardw": 450,
				"category": 5,
				"channel_id": 155,
				"drm": false,
				"hd": false,
				"icon": "34VtVRR0AKa25jKdXl9yxlO1nfisu1EFciFZudP8d/1+M7VHFYPKad6agNfSVdDHHSI+RK9DuvzRY5M3srg4MDjYnJH7Kk0l904bnd2oIhzQyStwVMlE/SaMeBlveYODAxSuhS/jW+x6/RNPiSTBLuTOex8uNnOkaxLVUVKUGLZJdW/EySL7+XHBM4ZlzKKzjc5M5wnLtUr2DEiSd8XLC6WYxNrB/uLs2d6QFaPhEPGDE+SvPBph83TLfLo87Rl2",
				"imgh": 219,
				"imgw": 450,
				"isHD": true,
				"language": 1,
				"lic": false,
				"link": "WIcuWrCQuy0UjplB+AIRMlYdIpR+skt43a7G5H/EWHlBQzwpCfx1ivHZ8zo1nRMP/GmZedMqC32gfVVw0J0ymRtf5yp3D4yQaH5e9bSjpvQ=",
				"linkp": "abc",
				"live": true,
				"name": "MAX2",
				"tok": "widevine",
				"tokj": "thoptv",
				"trigger": false,
				"z": false,
				"zee": false
			},
			{
				"cookie": "",
				"referer": "",
				"origin": "",
				"age": "SonyLIV",
				"cardl": 300,
				"cardw": 450,
				"category": 5,
				"channel_id": 155,
				"drm": false,
				"hd": false,
				"icon": "34VtVRR0AKa25jKdXl9yxlO1nfisu1EFciFZudP8d/1+M7VHFYPKad6agNfSVdDHHSI+RK9DuvzRY5M3srg4MDjYnJH7Kk0l904bnd2oIhzQyStwVMlE/SaMeBlveYODAxSuhS/jW+x6/RNPiSTBLuTOex8uNnOkaxLVUVKUGLZJdW/EySL7+XHBM4ZlzKKzqI0fQuSRUmpxMDFqFXkusrtZX//m2JEnLdSlbIwyzF8=",
				"imgh": 219,
				"imgw": 450,
				"isHD": true,
				"language": 1,
				"lic": false,
				"link": "WIcuWrCQuy0UjplB+AIRMlYdIpR+skt43a7G5H/EWHlBQzwpCfx1ivHZ8zo1nRMP/GmZedMqC32gfVVw0J0ymRtf5yp3D4yQaH5e9bSjpvQ=",
				"linkp": "abc",
				"live": true,
				"name": "BBC Earth",
				"tok": "widevine",
				"tokj": "thoptv",
				"trigger": false,
				"z": false,
				"zee": false
			},
			{
				"cookie": "",
				"referer": "",
				"origin": "",
				"age": "SonyLIV",
				"cardl": 300,
				"cardw": 450,
				"category": 5,
				"channel_id": 155,
				"drm": false,
				"hd": false,
				"icon": "34VtVRR0AKa25jKdXl9yxlO1nfisu1EFciFZudP8d/1+M7VHFYPKad6agNfSVdDHHSI+RK9DuvzRY5M3srg4MDjYnJH7Kk0l904bnd2oIhzQyStwVMlE/SaMeBlveYODAxSuhS/jW+x6/RNPiSTBLuTOex8uNnOkaxLVUVKUGLaXfTMA1KDcFE31BCI8/Fcn9gwPRxSM8uy6369MW2GXit91ZUVQZY7eK3k4uC9Al3tehMmXiQfzg6NkBr1NB0Q3KCvwWYitwL3Xujh0RDhhcg==",
				"imgh": 219,
				"imgw": 450,
				"isHD": true,
				"language": 1,
				"lic": false,
				"link": "WIcuWrCQuy0UjplB+AIRMlYdIpR+skt43a7G5H/EWHnMok6UbAtSCg2WjZKlURHFaFaCWqs4onmw0S8r6/l5yTinvHamLAyaE6PMyFI/FHcKUsLyPcu9jKvoNoWmSDvu",
				"linkp": "abc",
				"live": true,
				"name": "Sony YAY",
				"tok": "widevine",
				"tokj": "thoptv",
				"trigger": false,
				"z": false,
				"zee": false
			},
			{
				"cookie": "",
				"referer": "",
				"origin": "",
				"age": "SonyLIV",
				"cardl": 300,
				"cardw": 450,
				"category": 5,
				"channel_id": 155,
				"drm": false,
				"hd": false,
				"icon": "34VtVRR0AKa25jKdXl9yxlO1nfisu1EFciFZudP8d/1+M7VHFYPKad6agNfSVdDHHSI+RK9DuvzRY5M3srg4MDjYnJH7Kk0l904bnd2oIhzQyStwVMlE/SaMeBlveYODAxSuhS/jW+x6/RNPiSTBLuTOex8uNnOkaxLVUVKUGLaXfTMA1KDcFE31BCI8/FcnEZ2sFWHLXOvnw7lJT9NPsvOrnEtF13qVqX6Z9ZlksKTv0tEpMlvvwAsyZ2wJyU2FDMWMKgkvwRnD4LaKd2J6BQ==",
				"imgh": 219,
				"imgw": 450,
				"isHD": true,
				"language": 1,
				"lic": false,
				"link": "WIcuWrCQuy0UjplB+AIRMlYdIpR+skt43a7G5H/EWHlxNpTWaV0OODRLEmbT2+fizPUQ+pkAZrAW+K3502awiIiO2CouFvJNiQZI4srrXmE9U23iYlXdO5ou7dzufPPL",
				"linkp": "abc",
				"live": true,
				"name": "PAL",
				"tok": "widevine",
				"tokj": "thoptv",
				"trigger": false,
				"z": false,
				"zee": false
			},
			{
				"cookie": "",
				"referer": "",
				"origin": "",
				"age": "SonyLIV",
				"cardl": 300,
				"cardw": 450,
				"category": 5,
				"channel_id": 155,
				"drm": false,
				"hd": false,
				"icon": "34VtVRR0AKa25jKdXl9yxlO1nfisu1EFciFZudP8d/1+M7VHFYPKad6agNfSVdDHHSI+RK9DuvzRY5M3srg4MDjYnJH7Kk0l904bnd2oIhzQyStwVMlE/SaMeBlveYODAxSuhS/jW+x6/RNPiSTBLuTOex8uNnOkaxLVUVKUGLaXfTMA1KDcFE31BCI8/FcnxbFJS2Wi48zHmXupCCSkh2F4QQOfo8cEHD5txotSv+Dt3FQE/IV7O7RZ/5zmP8Xwyarv0BOrLS6VQ/dUNE/yqQ==",
				"imgh": 219,
				"imgw": 450,
				"isHD": true,
				"language": 1,
				"lic": false,
				"link": "WIcuWrCQuy0UjplB+AIRMlYdIpR+skt43a7G5H/EWHkgQijq96EidOzKn1hyG5fYos5n9qAurzqGmv49LB5q7QeTqQnoSyl8tz4/wf/0u2N32bt1SK/Wr4iTBl+NApms",
				"linkp": "abc",
				"live": true,
				"name": "Aath",
				"tok": "widevine",
				"tokj": "thoptv",
				"trigger": false,
				"z": false,
				"zee": false
			},
			{
				"cookie": "",
				"referer": "",
				"origin": "",
				"age": "SonyLIV",
				"cardl": 300,
				"cardw": 450,
				"category": 5,
				"channel_id": 155,
				"drm": false,
				"hd": false,
				"icon": "34VtVRR0AKa25jKdXl9yxlO1nfisu1EFciFZudP8d/1+M7VHFYPKad6agNfSVdDHHSI+RK9DuvzRY5M3srg4MDjYnJH7Kk0l904bnd2oIhzQyStwVMlE/SaMeBlveYODAxSuhS/jW+x6/RNPiSTBLuTOex8uNnOkaxLVUVKUGLaXfTMA1KDcFE31BCI8/FcnlWaQhhsP7VSiKZ7z4hchUI9iZ/6UWWiSQwQK/22ZeloRkZ664yhJnMqlKIwS1cttriM0Bu1D8QbT3w04Lb/CVg==",
				"imgh": 219,
				"imgw": 450,
				"isHD": true,
				"language": 1,
				"lic": false,
				"link": "WIcuWrCQuy0UjplB+AIRMlYdIpR+skt43a7G5H/EWHmSb7F0MeeCvyPo51f0eIiSEv2+rCT3Pqo4RH2ckgOE5gYTNHd1zutO45G5tnO8SyAyvy6rSNCfhTmV/mXw7Jxb",
				"linkp": "abc",
				"live": true,
				"name": "PIX",
				"tok": "widevine",
				"tokj": "thoptv",
				"trigger": false,
				"z": false,
				"zee": false
			},
			
			{
				"cookie": "",
				"referer": "",
				"origin": "",
				"age": "SonyLIV",
				"cardl": 300,
				"cardw": 450,
				"category": 5,
				"channel_id": 155,
				"drm": false,
				"hd": false,
				"icon": "34VtVRR0AKa25jKdXl9yxlO1nfisu1EFciFZudP8d/1+M7VHFYPKad6agNfSVdDHHSI+RK9DuvzRY5M3srg4MDjYnJH7Kk0l904bnd2oIhzQyStwVMlE/SaMeBlveYODAxSuhS/jW+x6/RNPiSTBLuTOex8uNnOkaxLVUVKUGLaXfTMA1KDcFE31BCI8/FcnefZMMpuP71GMoGQMhKR8tgXhtxN628Mm8B7iX31Ug8yIV43nO0cjcEt9iebAntbi97O3Ks+4pUz1EmdDiMX5LA==",
				"imgh": 219,
				"imgw": 450,
				"isHD": true,
				"language": 1,
				"lic": false,
				"link": "WIcuWrCQuy0UjplB+AIRMlYdIpR+skt43a7G5H/EWHlBQzwpCfx1ivHZ8zo1nRMP/GmZedMqC32gfVVw0J0ymRtf5yp3D4yQaH5e9bSjpvQ=",
				"linkp": "abc",
				"live": true,
				"name": "SET Live",
				"tok": "widevine",
				"tokj": "thoptv",
				"trigger": false,
				"z": false,
				"zee": false
			}
		]
	}


	
]
