[{
    "name": " Mixed Shows",
	"lan": "82"
},{
    "name": "Hindi Shows",
	"lan": "78"
},{
    "name": "English Shows",
	"lan": "79"
},{
    "name": "Top Shows",
	"lan": "83"
},{
    "name": "Popular Shows",
	"lan": "64"
},{
    "name": "Marathi Shows",
	"lan": "80"
},{
    "name": "TV Documentaries",
	"lan": "81"
},{
    "name": "Best Of BBC Shows ",
	"lan": "65"
},{
    "name": "Hungama Picks ",
	"lan": "66"
},{
    "name": "Hungama Originals",
	"lan": "68"
},{
    "name": "Naughty TV",
	"lan": "69"
},{
    "name": "Lifestyle TV",
	"lan": "71"
},{
    "name": "Best Of Indian TV",
	"lan": "73"
},{
    "name": "Kid Zone",
	"lan": "75"
},{
    "name": "All About INDIA",
	"lan": "76"
},{
    "name": "Comedy TV",
	"lan": "77"
}
]
