[{
    "name": "Hindi",
	"lan": "hi"
},{
    "name": "English",
	"lan": "en"
},{
    "name": "Tamil",
	"lan": "ta"
},{
    "name": "Telugu",
	"lan": "te"
},{
    "name": "Marathi",
	"lan": "mr"
},{
    "name": "Kannada",
	"lan": "kn"
},{
    "name": "Malayalam",
	"lan": "ml"
},{
    "name": "Bengali",
	"lan": "bn"
},{
    "name": "Gujarati",
	"lan": "gu"
},{
    "name": "Punjabi",
	"lan": "pa"
},{
    "name": "Bhojpuri",
	"lan": "hr"
}
]
