[{
	"type": "stardrm",
	"name": "Star Vijay HD (India)",
	"icon": "http://jiotv.catchup.cdn.jio.com/dare_images/images/Star_Vijay.png",
	"link": "1260000018"
}, {
	"type": "stardrm",
	"name": "Star Utsav HD (India)",
	"icon": "http://jiotv.catchup.cdn.jio.com/dare_images/images/Star_Utsav.png",
	"link": "1260000020"
}, {
	"type": "stardrm",
	"name": "Star Plus HD (India)",
	"icon": "http://jiotv.catchup.cdn.jio.com/dare_images/images/Star_Plus_HD.png",
	"link": "1260000017"
}, {
	"type": "stardrm",
	"name": "Star Gold HD (India)",
	"icon": "http://jiotv.catchup.cdn.jio.com/dare_images/images/Star_Gold_HD.png",
	"link": "1260000040"
}, {
	"type": "stardrm",
	"name": "Star Bharat HD (India)",
	"icon": "http://jiotv.catchup.cdn.jio.com/dare_images/images/Star_Bharat_HD.png",
	"link": "1260000031"
}, {
	"type": "stardrm",
	"name": "Star Jalsha HD (India)",
	"icon": "http://jiotv.catchup.cdn.jio.com/dare_images/images/Star_Jalsha.png",
	"link": "1260000014"
}, {
	"type": "stardrm",
	"name": "Jalsha Movies HD (India)",
	"icon": "http://jiotv.catchup.cdn.jio.com/dare_images/images/Jalsa_Movies_HD.png",
	"link": "1260000039"
}, {
	"type": "stardrm",
	"name": "Maa Gold HD (India)",
	"icon": "http://jiotv.catchup.cdn.jio.com/dare_images/images/Maa_Gold.png",
	"link": "1260000019"
}, {
	"type": "stardrm",
	"name": "Star Maa HD (India)",
	"icon": "http://jiotv.catchup.cdn.jio.com/dare_images/images/Maa_TV.png",
	"link": "1260000016"
}, {
	"type": "stardrm",
	"name": "Star Maa Movies HD (India)",
	"icon": "http://jiotv.catchup.cdn.jio.com/dare_images/images/Maa_Movies.png",
	"link": "1260000008"
}, {
	"type": "stardrm",
	"name": "Movies OK HD (India)",
	"icon": "http://jiotv.catchup.cdn.jio.com/dare_images/images/Movies_OK.png",
	"link": "1260000041"
}, {
	"type": "stardrm",
	"name": "Star Suvarna HD (India)",
	"icon": "http://jiotv.catchup.cdn.jio.com/dare_images/images/Asianet_Suvarna_HD.png",
	"link": "1260000002"
}, {
	"type": "stardrm",
	"name": "Asianet Plus HD (India)",
	"icon": "http://jiotv.catchup.cdn.jio.com/dare_images/images/Asianet_Plus.png",
	"link": "1260000004"
}, {
	"type": "stardrm",
	"name": "Asianet HD HD (India)",
	"icon": "http://jiotv.catchup.cdn.jio.com/dare_images/images/Asianet.png",
	"link": "1260000012"
}, {
	"type": "stardrm",
	"name": "Star Pravah HD (India)",
	"icon": "http://jiotv.catchup.cdn.jio.com/dare_images/images/Star_Pravah.png",
	"link": "1260000006"
}, {
	"type": "stardrm",
	"name": "Asianet Movies (India)",
	"icon": "http://jiotv.catchup.cdn.jio.com/dare_images/images/Asianet.png",
	"link": "1261000001"
}, {
	"type": "stardrm",
	"name": "Star Sports 1 DRM",
	"icon": "http://jiotv.catchup.cdn.jio.com/dare_images/images/Star_Sports_1.png",
	"link": "1260000035"
}, {
	"type": "stardrm",
	"name": "Star Sports 2 DRM",
	"icon": "http://jiotv.catchup.cdn.jio.com/dare_images/images/Star_Sports_2.png",
	"link": "1260000033"
}, {
	"type": "stardrm",
	"name": "Star Sports Select 1 DRM",
	"icon": "http://jiotv.catchup.cdn.jio.com/dare_images/images/Star_Sports_Select_1.png",
	"link": "1260000034"
}, {
	"type": "stardrm",
	"name": "Star Sports Select 2 DRM",
	"icon": "http://jiotv.catchup.cdn.jio.com/dare_images/images/Star_Sports_Select_2.png",
	"link": "1260000024"
}, {
	"type": "stardrm",
	"name": "Star Sports 1 Hindi DRM",
	"icon": "http://jiotv.catchup.cdn.jio.com/dare_images/images/Star_Sports_3.png",
	"link": "1260000025"
}, {
	"type": "star",
	"name": "Aaj Tak HD (India)",
	"icon": "https://smedia2.intoday.in/aajtak/aajtakhd/images/aajtakHd_logo.png",
	"link": "1000120159"
}, {
	"type": "star",
	"name": "Russia Today",
	"icon": "https://upload.wikimedia.org/wikipedia/commons/thumb/archive/a/a0/20160830052851%21Russia-today-logo.svg/120px-Russia-today-logo.svg.png",
	"link": "https://rt-news.secure.footprint.net//1103-inadv-qidx-1k_v3.m3u8"
}, {
	"type": "star",
	"name": "Republic TV (India)",
	"icon": "https://secure-media.hotstar.com/static/NewsV2/PartnerLogos/republic.png",
	"link": "1000116802"
}, {
	"type": "star",
	"name": "News Nation (India)",
	"icon": "https://secure-media.hotstar.com/static/NewsV2/PartnerLogos/newsnation.png",
	"link": "1000120237"
}, {
	"type": "star",
	"name": "Tez News (India)",
	"icon": "https://secure-media.hotstar.com/static/NewsV2/PartnerLogos/tez.png",
	"link": "1000120162"
}, {
	"type": "star",
	"name": "Dilli Aaj Tak (India)",
	"icon": "https://secure-media.hotstar.com/static/NewsV2/PartnerLogos/dilliaajtak.png",
	"link": "1000120161"
}, {
	"type": "star",
	"name": "ABP News (India)",
	"icon": "https://secure-media.hotstar.com/static/NewsV2/PartnerLogos/abpnews.png",
	"link": "1000119060"
}, {
	"type": "star",
	"name": "ABP Asmita (India)",
	"icon": "https://secure-media.hotstar.com/static/NewsV2/PartnerLogos/abpasmita.png",
	"link": "1000119090"
}, {
	"type": "star",
	"name": "ABP Ananda (India)",
	"icon": "https://secure-media.hotstar.com/static/NewsV2/PartnerLogos/abpananda.png",
	"link": "1000119096"
}, {
	"type": "star",
	"name": "Asianet News (India)",
	"icon": "https://secure-media.hotstar.com/static/NewsV2/PartnerLogos/asianetnews.png",
	"link": "1000119061"
}, {
	"type": "star",
	"name": "ABP Majha (India)",
	"icon": "https://secure-media.hotstar.com/static/NewsV2/PartnerLogos/abpmajha.png",
	"link": "1000119099"
}, {
	"type": "star",
	"name": "Business Television India (India)",
	"icon": "https://secure-media.hotstar.com/static/NewsV2/PartnerLogos/btvi.png",
	"link": "1000119130"
}, {
	"type": "star",
	"name": "Bloomberg Quint (India)",
	"icon": "https://secure-media.hotstar.com/static/NewsV2/PartnerLogos/bloombergquint.png",
	"link": "1000119131"
}, {
	"type": "star",
	"name": "Mathrubhumi News (India)",
	"icon": "https://secure-media.hotstar.com/static/NewsV2/PartnerLogos/mathrubhumi.png",
	"link": "1000119186"
}, {
	"type": "star",
	"name": "Fox Business (India)",
	"icon": "https://secure-media.hotstar.com/static/NewsV2/PartnerLogos/foxbusiness.png",
	"link": "1000102698"
}, {
	"type": "star",
	"name": "Fox News (India)",
	"icon": "https://secure-media.hotstar.com/static/NewsV2/PartnerLogos/foxnews.png",
	"link": "1000102697"
}, {
	"type": "star",
	"name": "Sky News (India)",
	"icon": "https://secure-media.hotstar.com/static/NewsV2/PartnerLogos/skynews.png",
	"link": "1000099255"
}, {
	"type": "star",
	"name": "TV9 Telugu News (India)",
	"icon": "https://secure-media.hotstar.com/static/NewsV2/PartnerLogos/tv9telugu.png",
	"link": "1000119249"
}, {
	"type": "star",
	"name": "TV9 Kannada News (India)",
	"icon": "https://secure-media.hotstar.com/static/NewsV2/PartnerLogos/tv9kannada.png",
	"link": "1000119251"
}, {
	"type": "star",
	"name": "Polimer News (India)",
	"icon": "https://secure-media.hotstar.com/static/NewsV2/PartnerLogos/polimer.png",
	"link": "1000119564"
}, {
	"type": "star",
	"name": "India Today (India)",
	"icon": "https://secure-media.hotstar.com/static/NewsV2/PartnerLogos/indiatoday.png",
	"link": "1000120160"
}]